…
``` r
Tabla <- left_join(Ingreso,Perdida, by = "Territorio")
```

``` r
library(formattable)

Tabla %>% 
  mutate(Porcentaje = percent((-perdida_terr)/Venta_terr)) %>% 
  arrange(-Porcentaje)
```

    ## # A tibble: 104 x 4
    ##    Territorio Venta_terr perdida_terr Porcentaje
    ##    <chr>           <dbl>        <dbl> <formttbl>
    ##  1 68de9759        3930.       -226.  5.74%     
    ##  2 8682908b        4857.       -245.  5.05%     
    ##  3 45c0376d       11121.       -475.  4.27%     
    ##  4 0320288f         879.        -33.6 3.82%     
    ##  5 4814799f       24928.       -664.  2.67%     
    ##  6 5a464f3f        4921.       -126.  2.57%     
    ##  7 0bbe6418        9110.       -218.  2.39%     
    ##  8 d43e8f6a        5847.       -136.  2.33%     
    ##  9 6eff1266        7616.       -176.  2.31%     
    ## 10 c31adb2f       10114.       -230.  2.28%     
    ## # ... with 94 more rows
